Descripcion de las matrices
…
Base de datos de la atencion a denuncia de talas del 2022:

Mostrar el código

# Limpieza de nombres:
tabla_denuncias<-tabla_denuncias %>%
  clean_names()

# Agrupación y cálulo:
tabla_denuncias %>% 
  group_by(canton) %>%
  summarise(denuncias=n(),
            suma_vol_retenido = sum(volumen_retenido,na.rm = T))

# A tibble: 54 × 3
   canton                          denuncias suma_vol_retenido
   <chr>                               <int>             <dbl>
 1 ANTONIO ANTE                            1              0   
 2 ARENILLAS                               4              1.32
 3 ATACAMES                                2              0   
 4 BOLIVAR                                 1              0   
 5 CALVAS                                  2              0   
 6 CELICA                                  1              0   
 7 CHONE                                   1              0   
 8 CUYABENO                                1              1.5 
 9 DISTRITO METROPOLITANO DE QUITO        14           1037.  
10 EL CARMEN                               4            272.  
# … with 44 more rows
…
